{
    "ocp3_guid": "ACDC",
    "ocp4_guid": "ACDC",
    "ocp3_domain": "open.redhat.com",
    "ocp4_domain": "open.redhat.com",
    "ocp3_password": "r3dh4t1!",
    "ocp4_password": "r3dh4t1!",
    "ocp3_ssh_user": "labuser",
    "ocp4_ssh_user": "labuser"
}
